^C:\USERS\GHOST IN THE MACHINE\DESKTOP\FVTC\SPRING 2020\C++\ACS.TICTACTOE\TICTACTOE\TICTACTOE\DEBUG\MAIN.OBJ|C:\USERS\GHOST IN THE MACHINE\DESKTOP\FVTC\SPRING 2020\C++\ACS.TICTACTOE\TICTACTOE\TICTACTOE\DEBUG\TICTACTOE.OBJ
/OUT:"C:\USERS\GHOST IN THE MACHINE\DESKTOP\FVTC\SPRING 2020\C++\ACS.TICTACTOE\TICTACTOE\DEBUG\TICTACTOE.EXE" /INCREMENTAL /NOLOGO KERNEL32.LIB USER32.LIB GDI32.LIB WINSPOOL.LIB COMDLG32.LIB ADVAPI32.LIB SHELL32.LIB OLE32.LIB OLEAUT32.LIB UUID.LIB ODBC32.LIB ODBCCP32.LIB /MANIFEST /MANIFESTUAC:"level='asInvoker' uiAccess='false'" /manifest:embed /DEBUG:FASTLINK /PDB:"C:\USERS\GHOST IN THE MACHINE\DESKTOP\FVTC\SPRING 2020\C++\ACS.TICTACTOE\TICTACTOE\DEBUG\TICTACTOE.PDB" /SUBSYSTEM:CONSOLE /TLBID:1 /DYNAMICBASE /NXCOMPAT /IMPLIB:"C:\USERS\GHOST IN THE MACHINE\DESKTOP\FVTC\SPRING 2020\C++\ACS.TICTACTOE\TICTACTOE\DEBUG\TICTACTOE.LIB" /MACHINE:X86 DEBUG\MAIN.OBJ
DEBUG\TICTACTOE.OBJ
